%YAML 1.1
%TAG !u! tag:unity3d.com,2011:
--- !u!74 &7400000
AnimationClip:
  m_ObjectHideFlags: 0
  m_CorrespondingSourceObject: {fileID: 0}
  m_PrefabInternal: {fileID: 0}
  m_Name: ChicagoBerrys_Animation
  serializedVersion: 6
  m_Legacy: 0
  m_Compressed: 0
  m_UseHighQualityCurve: 1
  m_RotationCurves: []
  m_CompressedRotationCurves: []
  m_EulerCurves: []
  m_PositionCurves: []
  m_ScaleCurves: []
  m_FloatCurves: []
  m_PPtrCurves:
  - curve:
    - time: 0
      value: {fileID: 21300000, guid: 2c1789a06a5d9494ca69f0a9935b6ce3, type: 3}
    - time: 0.1
      value: {fileID: 21300000, guid: e35382bda2af94b34b872a8dee22a3d3, type: 3}
    - time: 0.2
      value: {fileID: 21300000, guid: 1ff04004e9e234ea98652201fe2b4fbb, type: 3}
    - time: 0.3
      value: {fileID: 21300000, guid: 53f86819d44734c1ea007dec65663512, type: 3}
    - time: 0.4
      value: {fileID: 21300000, guid: 5b0e18058bb9c40cfa84995c4ed81ae3, type: 3}
    - time: 0.5
      value: {fileID: 21300000, guid: 0da42f266126041babd966cf87791f85, type: 3}
    - time: 0.6
      value: {fileID: 21300000, guid: dc9d1ce7d14db48b685104442d75b03a, type: 3}
    - time: 0.7
      value: {fileID: 21300000, guid: 312b7fb19ee2e456e94ad6a8a1ad0617, type: 3}
    - time: 0.8
      value: {fileID: 21300000, guid: f07bdb4618223462394fee597bc9a15a, type: 3}
    - time: 0.9
      value: {fileID: 21300000, guid: adc2fc229acf84fe1873ac43011245b1, type: 3}
    - time: 1
      value: {fileID: 21300000, guid: 5fed57822da9d496caafcc694ad51084, type: 3}
    - time: 1.1
      value: {fileID: 21300000, guid: 244675225c36a4e5f96a9ae1f7a6e2c8, type: 3}
    - time: 1.2
      value: {fileID: 21300000, guid: 86f1bff817ef6485a82198fc4eb6ac7d, type: 3}
    - time: 1.3
      value: {fileID: 21300000, guid: a6c324a4824014bcda10672c18acda03, type: 3}
    - time: 1.4
      value: {fileID: 21300000, guid: e9d419eb5a6124a16be605f350d3151d, type: 3}
    - time: 1.5
      value: {fileID: 21300000, guid: 15ffdabdccabb4362adbde1636c24607, type: 3}
    - time: 1.6
      value: {fileID: 21300000, guid: 447a8f1e6eb7b4634a68dfb694583b59, type: 3}
    - time: 1.7
      value: {fileID: 21300000, guid: d413f973d798d423db322dd5d1ae4488, type: 3}
    - time: 1.8
      value: {fileID: 21300000, guid: 71bb0d988cccf4471a1f286a5ae095ba, type: 3}
    - time: 1.9
      value: {fileID: 21300000, guid: 4f0dfa41dc1c945aba5b8dd2164a44bf, type: 3}
    - time: 2
      value: {fileID: 21300000, guid: 9678d87ec51614de585729d006d62628, type: 3}
    - time: 2.1
      value: {fileID: 21300000, guid: bf3c74710996a4c5e87e0191d4120409, type: 3}
    - time: 2.2
      value: {fileID: 21300000, guid: d1890aadb885a4df4afc8fdea259ce7f, type: 3}
    - time: 2.3
      value: {fileID: 21300000, guid: 46f87ed4559a0497ab1253e3abdd68c4, type: 3}
    attribute: m_Sprite
    path: 
    classID: 114
    script: {fileID: -765806418, guid: f70555f144d8491a825f0804e09c671c, type: 3}
  m_SampleRate: 10
  m_WrapMode: 0
  m_Bounds:
    m_Center: {x: 0, y: 0, z: 0}
    m_Extent: {x: 0, y: 0, z: 0}
  m_ClipBindingConstant:
    genericBindings:
    - serializedVersion: 2
      path: 0
      attribute: 2015549526
      script: {fileID: -765806418, guid: f70555f144d8491a825f0804e09c671c, type: 3}
      typeID: 114
      customType: 0
      isPPtrCurve: 1
    pptrCurveMapping:
    - {fileID: 21300000, guid: 2c1789a06a5d9494ca69f0a9935b6ce3, type: 3}
    - {fileID: 21300000, guid: e35382bda2af94b34b872a8dee22a3d3, type: 3}
    - {fileID: 21300000, guid: 1ff04004e9e234ea98652201fe2b4fbb, type: 3}
    - {fileID: 21300000, guid: 53f86819d44734c1ea007dec65663512, type: 3}
    - {fileID: 21300000, guid: 5b0e18058bb9c40cfa84995c4ed81ae3, type: 3}
    - {fileID: 21300000, guid: 0da42f266126041babd966cf87791f85, type: 3}
    - {fileID: 21300000, guid: dc9d1ce7d14db48b685104442d75b03a, type: 3}
    - {fileID: 21300000, guid: 312b7fb19ee2e456e94ad6a8a1ad0617, type: 3}
    - {fileID: 21300000, guid: f07bdb4618223462394fee597bc9a15a, type: 3}
    - {fileID: 21300000, guid: adc2fc229acf84fe1873ac43011245b1, type: 3}
    - {fileID: 21300000, guid: 5fed57822da9d496caafcc694ad51084, type: 3}
    - {fileID: 21300000, guid: 244675225c36a4e5f96a9ae1f7a6e2c8, type: 3}
    - {fileID: 21300000, guid: 86f1bff817ef6485a82198fc4eb6ac7d, type: 3}
    - {fileID: 21300000, guid: a6c324a4824014bcda10672c18acda03, type: 3}
    - {fileID: 21300000, guid: e9d419eb5a6124a16be605f350d3151d, type: 3}
    - {fileID: 21300000, guid: 15ffdabdccabb4362adbde1636c24607, type: 3}
    - {fileID: 21300000, guid: 447a8f1e6eb7b4634a68dfb694583b59, type: 3}
    - {fileID: 21300000, guid: d413f973d798d423db322dd5d1ae4488, type: 3}
    - {fileID: 21300000, guid: 71bb0d988cccf4471a1f286a5ae095ba, type: 3}
    - {fileID: 21300000, guid: 4f0dfa41dc1c945aba5b8dd2164a44bf, type: 3}
    - {fileID: 21300000, guid: 9678d87ec51614de585729d006d62628, type: 3}
    - {fileID: 21300000, guid: bf3c74710996a4c5e87e0191d4120409, type: 3}
    - {fileID: 21300000, guid: d1890aadb885a4df4afc8fdea259ce7f, type: 3}
    - {fileID: 21300000, guid: 46f87ed4559a0497ab1253e3abdd68c4, type: 3}
  m_AnimationClipSettings:
    serializedVersion: 2
    m_AdditiveReferencePoseClip: {fileID: 0}
    m_AdditiveReferencePoseTime: 0
    m_StartTime: 0
    m_StopTime: 2.3999999
    m_OrientationOffsetY: 0
    m_Level: 0
    m_CycleOffset: 0
    m_HasAdditiveReferencePose: 0
    m_LoopTime: 0
    m_LoopBlend: 0
    m_LoopBlendOrientation: 0
    m_LoopBlendPositionY: 0
    m_LoopBlendPositionXZ: 0
    m_KeepOriginalOrientation: 0
    m_KeepOriginalPositionY: 1
    m_KeepOriginalPositionXZ: 0
    m_HeightFromFeet: 0
    m_Mirror: 0
  m_EditorCurves: []
  m_EulerEditorCurves: []
  m_HasGenericRootTransform: 0
  m_HasMotionFloatCurves: 0
  m_GenerateMotionCurves: 0
  m_Events: []
